^C:\USERS\ZHIRA\SOURCE\REPOS\COMPARE-SORTS\COMPARE-SORTS\DEBUG\COMPARE-SORTS.OBJ|C:\USERS\ZHIRA\SOURCE\REPOS\COMPARE-SORTS\COMPARE-SORTS\DEBUG\PCH.OBJ
C:\USERS\ZHIRA\SOURCE\REPOS\COMPARE-SORTS\DEBUG\COMPARE-SORTS.EXE
C:\USERS\ZHIRA\SOURCE\REPOS\COMPARE-SORTS\DEBUG\COMPARE-SORTS.ILK
C:\USERS\ZHIRA\SOURCE\REPOS\COMPARE-SORTS\DEBUG\COMPARE-SORTS.PDB
